<?xml version="1.0" encoding="UTF-8" standalone="no"?>
<!-- Created with Inkscape (http://www.inkscape.org/) -->

<svg
   xmlns:dc="http://purl.org/dc/elements/1.1/"
   xmlns:cc="http://creativecommons.org/ns#"
   xmlns:rdf="http://www.w3.org/1999/02/22-rdf-syntax-ns#"
   xmlns:svg="http://www.w3.org/2000/svg"
   xmlns="http://www.w3.org/2000/svg"
   xmlns:sodipodi="http://sodipodi.sourceforge.net/DTD/sodipodi-0.dtd"
   xmlns:inkscape="http://www.inkscape.org/namespaces/inkscape"
   id="svg4925"
   version="1.1"
   inkscape:version="0.91 r13725"
   width="13"
   height="18"
   viewBox="0 0 13 18"
   sodipodi:docname="pass.svg">
  <metadata
     id="metadata4931">
    <rdf:RDF>
      <cc:Work
         rdf:about="">
        <dc:format>image/svg+xml</dc:format>
        <dc:type
           rdf:resource="http://purl.org/dc/dcmitype/StillImage" />
        <dc:title></dc:title>
      </cc:Work>
    </rdf:RDF>
  </metadata>
  <defs
     id="defs4929" />
  <sodipodi:namedview
     pagecolor="#ffffff"
     bordercolor="#666666"
     borderopacity="1"
     objecttolerance="10"
     gridtolerance="10"
     guidetolerance="10"
     inkscape:pageopacity="0"
     inkscape:pageshadow="2"
     inkscape:window-width="1024"
     inkscape:window-height="578"
     id="namedview4927"
     showgrid="false"
     showguides="true"
     inkscape:zoom="4.8255591"
     inkscape:cx="56.575568"
     inkscape:cy="2.4849306"
     inkscape:window-x="-8"
     inkscape:window-y="-8"
     inkscape:window-maximized="1"
     inkscape:current-layer="svg4925" />
  <g
     transform="matrix(-0.02830517,0,0,-0.01712953,-1.7647974,0.4736147)"
     style="font-style:normal;font-weight:normal;font-size:545.29400635px;line-height:125%;font-family:sans-serif;letter-spacing:0px;word-spacing:0px;opacity:1;fill:#000000;fill-opacity:1;stroke:none;stroke-width:1px;stroke-linecap:butt;stroke-linejoin:miter;stroke-opacity:1"
     id="text5252">
    <path
       id="path5257"
       d="m -240.70471,-29.474587 c -18.28297,6.21266 -42.16287,19.97446 -66.481,19.97446 -24.85064,0 -46.79331,-0.072176 -66.25635,-18.375879 -33.26385,-31.282438 -60.06677,-86.042924 -74.16918,-144.837484 -18.13325,-75.59962 -7.73808,-243.62813 -7.73808,-243.62813 l 70.77438,-6.39328 c 0.45541,87.95159 -2.07709,165.02061 8.46394,212.22635 14.61421,65.44658 46.03269,83.31765 70.88591,81.13393 22.41847,-1.96979 54.32462,-22.74414 68.2136,-77.2677 12.39746,-48.66831 15.15557,-127.08629 11.35031,-211.83039 l 74.64342,2.13109 c 7.65248,170.84621 -6.99834,321.09982 -89.68695,386.867033 z m 89.81543,-411.660853 c 41.438,0 74.798138,-55.12496 74.798138,-123.59796 l 0,-319.67656 c 0,-68.47299 -33.360138,-123.59794 -74.798138,-123.59794 l -304.37217,0 c -41.438,0 -74.79661,55.12495 -74.79661,123.59794 l 0,319.67656 c 0,68.473 33.35861,123.59796 74.79661,123.59796 l 304.37217,0 z M -305.01183,-635.8432 a 38.618761,65.637698 0 0 1 -38.61838,-65.63655 38.618761,65.637698 0 0 1 17.34082,-54.7327 l 0,-88.08196 c 0,-23.4017 9.20314,-42.23959 20.63486,-42.23959 11.43173,0 20.63486,18.83789 20.63486,42.23959 l 0,86.75131 a 38.618761,65.637698 0 0 1 18.62622,56.06335 38.618761,65.637698 0 0 1 -38.61838,65.63655 z"
       inkscape:connector-curvature="0"
       style="fill:#000000" />
  </g>
</svg>
