<?xml version="1.0" encoding="UTF-8" standalone="no"?>
<!-- Created with Inkscape (http://www.inkscape.org/) -->

<svg
   xmlns:dc="http://purl.org/dc/elements/1.1/"
   xmlns:cc="http://creativecommons.org/ns#"
   xmlns:rdf="http://www.w3.org/1999/02/22-rdf-syntax-ns#"
   xmlns:svg="http://www.w3.org/2000/svg"
   xmlns="http://www.w3.org/2000/svg"
   xmlns:sodipodi="http://sodipodi.sourceforge.net/DTD/sodipodi-0.dtd"
   xmlns:inkscape="http://www.inkscape.org/namespaces/inkscape"
   id="svg4301"
   version="1.1"
   inkscape:version="0.91 r13725"
   width="15"
   height="18"
   viewBox="0 0 15 18"
   sodipodi:docname="usu.svg">
  <metadata
     id="metadata4307">
    <rdf:RDF>
      <cc:Work
         rdf:about="">
        <dc:format>image/svg+xml</dc:format>
        <dc:type
           rdf:resource="http://purl.org/dc/dcmitype/StillImage" />
        <dc:title></dc:title>
      </cc:Work>
    </rdf:RDF>
  </metadata>
  <defs
     id="defs4305" />
  <sodipodi:namedview
     pagecolor="#ffffff"
     bordercolor="#666666"
     borderopacity="1"
     objecttolerance="10"
     gridtolerance="10"
     guidetolerance="10"
     inkscape:pageopacity="0"
     inkscape:pageshadow="2"
     inkscape:window-width="1024"
     inkscape:window-height="578"
     id="namedview4303"
     showgrid="false"
     inkscape:zoom="17.874556"
     inkscape:cx="21.322544"
     inkscape:cy="9.1869808"
     inkscape:window-x="-8"
     inkscape:window-y="-8"
     inkscape:window-maximized="1"
     inkscape:current-layer="svg4301" />
  <g
     id="g4921"
     transform="matrix(0.04234452,0,0,0.04234452,-1.4267526,17.147642)">
    <circle
       r="104.72987"
       cy="-298.50424"
       cx="209.45976"
       id="path4875-7"
       style="fill:#2b0000;stroke:#000000;stroke-width:0;stroke-miterlimit:4;stroke-dasharray:none;stroke-opacity:1" />
    <path
       sodipodi:nodetypes="cccczcc"
       inkscape:connector-curvature="0"
       id="path4875"
       d="m 296.08183,-206.54968 c -19.4899,28.70102 -48.34758,54.83904 -83.04059,54.8458 -35.03457,-0.0281 -69.52485,-22.94336 -88.92111,-52.11881 -37.1965,16.30373 -70.68906,48.572 -88.95782,131.23676 0,0 61.27838,91.66034 176.43395,91.59951 115.15557,-0.0608 173.95121,-92.29201 173.95121,-92.29201 -12.01924,-78.97887 -54.2778,-109.75142 -89.46564,-133.27125 z"
       style="fill:#2b0000;stroke:#000000;stroke-width:0;stroke-miterlimit:4;stroke-dasharray:none;stroke-opacity:1" />
  </g>
</svg>
